[
{
  "model": "auth.user",
  "pk": 1,
  "fields": {
    "password": "pbkdf2_sha256$150000$ET3wTI0RdQrP$2YICAAn0ewfmZW5NFXvrCgit2Nl06eojitifSsrkCGc=",
    "last_login": "2020-04-16T17:16:30.430Z",
    "is_superuser": true,
    "username": "admin",
    "first_name": "",
    "last_name": "",
    "email": "admin@gmail.com",
    "is_staff": true,
    "is_active": true,
    "date_joined": "2020-04-02T18:57:48.891Z",
    "groups": [],
    "user_permissions": []
  }
}
]
